…
## Draw one bootstrap sample

``` r
boot_sample = function(df) {
  sample_frac(df, replace = TRUE)
}
```

we made a function so we can reuse it let’s check if it works

``` r
boot_sample(sim_df_nonconst)
```

    ## # A tibble: 250 × 3
    ##         x    error       y
    ##     <dbl>    <dbl>   <dbl>
    ##  1 -0.606 -0.106    0.0774
    ##  2 -0.524 -0.536   -0.106 
    ##  3  2.36   0.704    9.78  
    ##  4  0.785 -0.485    3.87  
    ##  5  0.557 -0.148    3.52  
    ##  6  0.164 -0.00859  2.48  
    ##  7  1.76   1.33     8.62  
    ##  8 -0.989 -1.97    -2.93  
    ##  9 -0.733  0.447    0.248 
    ## 10  0.472  0.122    3.54  
    ## # ℹ 240 more rows
…
## Many samples and analysis

``` r
boot_straps = 
  tibble(strap_number = 1:1000) |> 
  mutate(
    strap_sample = map(strap_number, \(i) boot_sample(df = sim_df_nonconst))
  )

boot_straps
```

    ## # A tibble: 1,000 × 2
    ##    strap_number strap_sample      
    ##           <int> <list>            
    ##  1            1 <tibble [250 × 3]>
    ##  2            2 <tibble [250 × 3]>
    ##  3            3 <tibble [250 × 3]>
    ##  4            4 <tibble [250 × 3]>
    ##  5            5 <tibble [250 × 3]>
    ##  6            6 <tibble [250 × 3]>
    ##  7            7 <tibble [250 × 3]>
    ##  8            8 <tibble [250 × 3]>
    ##  9            9 <tibble [250 × 3]>
    ## 10           10 <tibble [250 × 3]>
    ## # ℹ 990 more rows

lets look at the first few elements

``` r
boot_straps |> 
  slice(1:3) |> 
  mutate(strap_sample = map(strap_sample, \(s) arrange(s, x))) |> 
  pull(strap_sample)
```

    ## [[1]]
    ## # A tibble: 250 × 3
    ##         x  error       y
    ##     <dbl>  <dbl>   <dbl>
    ##  1 -1.29   1.40  -0.454 
    ##  2 -0.989 -1.97  -2.93  
    ##  3 -0.914 -0.908 -1.65  
    ##  4 -0.914 -0.908 -1.65  
    ##  5 -0.805  0.292 -0.123 
    ##  6 -0.805  0.292 -0.123 
    ##  7 -0.665 -0.544 -0.539 
    ##  8 -0.641 -0.416 -0.338 
    ##  9 -0.606 -0.106  0.0774
    ## 10 -0.606 -0.106  0.0774
    ## # ℹ 240 more rows
    ## 
    ## [[2]]
    ## # A tibble: 250 × 3
    ##         x  error      y
    ##     <dbl>  <dbl>  <dbl>
    ##  1 -1.89   1.62  -2.04 
    ##  2 -1.89   1.62  -2.04 
    ##  3 -1.29   1.40  -0.454
    ##  4 -1.29   1.40  -0.454
    ##  5 -1.00   0.832 -0.169
    ##  6 -0.914 -0.908 -1.65 
    ##  7 -0.805  0.292 -0.123
    ##  8 -0.665 -0.544 -0.539
    ##  9 -0.665 -0.544 -0.539
    ## 10 -0.665 -0.544 -0.539
    ## # ℹ 240 more rows
    ## 
    ## [[3]]
    ## # A tibble: 250 × 3
    ##         x  error      y
    ##     <dbl>  <dbl>  <dbl>
    ##  1 -1.89   1.62  -2.04 
    ##  2 -1.89   1.62  -2.04 
    ##  3 -1.29   1.40  -0.454
    ##  4 -1.29   1.40  -0.454
    ##  5 -1.29   1.40  -0.454
    ##  6 -1.21  -0.781 -2.43 
    ##  7 -1.00   0.832 -0.169
    ##  8 -1.00   0.832 -0.169
    ##  9 -0.989 -1.97  -2.93 
    ## 10 -0.914 -0.908 -1.65 
    ## # ℹ 240 more rows
…
``` r
boot_straps = 
  sim_df_nonconst |> 
  modelr::bootstrap(n = 1000)

boot_straps |> pull(strap) |> nth(1)
```

    ## <resample [250 x 3]> 216, 163, 142, 68, 24, 81, 175, 115, 139, 182, ...

``` r
boot_straps |> pull(strap) |> nth(1) |> as_tibble()
```

    ## # A tibble: 250 × 3
    ##         x  error     y
    ##     <dbl>  <dbl> <dbl>
    ##  1  2.52   0.528 10.1 
    ##  2  2.06   1.74   9.91
    ##  3  2.18   1.00   9.53
    ##  4  2.47  -0.224  9.17
    ##  5 -0.989 -1.97  -2.93
    ##  6  0.431 -0.106  3.19
    ##  7  0.666  0.285  4.28
    ##  8  0.793 -0.101  4.28
    ##  9  0.348 -0.497  2.55
    ## 10  1.98   0.745  8.70
    ## # ℹ 240 more rows
…
