…
Let’s start with a for loop

``` r
output = vector("list", 100)

for (i in 1:100) {
  
  output[[i]] = sim_mean_sd(30)
}

bind_rows(output)
```

    ## # A tibble: 100 × 2
    ##     mean    sd
    ##    <dbl> <dbl>
    ##  1 2.05   2.99
    ##  2 3.08   3.49
    ##  3 1.36   3.88
    ##  4 2.45   2.73
    ##  5 1.75   2.97
    ##  6 2.35   3.27
    ##  7 2.12   2.54
    ##  8 2.82   2.75
    ##  9 0.297  2.69
    ## 10 2.58   2.79
    ## # ℹ 90 more rows
…
